appdirs==1.4.3
backcall==0.1.0
decorator==4.4.2
distlib==0.3.0
filelock==3.0.12
ipython==7.14.0
ipython-genutils==0.2.0
jedi==0.17.0
parso==0.7.0
pexpect==4.8.0
pickleshare==0.7.5
prompt-toolkit==3.0.5
ptyprocess==0.6.0
pygame==1.9.6
Pygments==2.6.1
six==1.14.0
traitlets==4.3.3
virtualenv==20.0.18
wcwidth==0.1.9
